Calculates a name for a growth references for each measurement — set_refcodes • nlreferences
…
    Examples

df <- data.frame(
  xname = c("age", "age", "age", "age", "hgt", "age"),
  yname = c("hgt", "hgt", "hdc", "hdc", "wfh", "dsc"),
  x = c(0.1, 0.1, 0.1, 1.6, 60, 1.0),
  sex = rep(c("male", "female"), 3),
  ga = c(39, 27, 27, 27, 39, 40))
refcodes <- set_refcodes(df)

# show the preterm 27 weeks hgt reference
centile::load_reference(refcodes[2], pkg = "nlreferences")

#> # A tibble: 61 × 3
#>         x  mean    sd
#>     <dbl> <dbl> <dbl>
#>  1 0       32.7  3.11
#>  2 0.0027  32.8  3.09
#>  3 0.0055  33.0  3.07
#>  4 0.0082  33.2  3.06
#>  5 0.011   33.4  3.04
#>  6 0.0137  33.6  3.03
#>  7 0.0164  33.8  3.01
#>  8 0.0192  34.0  3.00
#>  9 0.0219  34.2  2.98
#> 10 0.0246  34.4  2.97
#> # … with 51 more rows
…
